<?xml version="1.0" encoding="utf-8"?>
<!-- Generator: Adobe Illustrator 22.0.1, SVG Export Plug-In . SVG Version: 6.00 Build 0)  -->
<svg version="1.1" id="Ebene_1" xmlns="http://www.w3.org/2000/svg" xmlns:xlink="http://www.w3.org/1999/xlink" x="0px" y="0px"
	 viewBox="0 0 1024 1024" style="enable-background:new 0 0 1024 1024;" xml:space="preserve">
<style type="text/css">
	.st0{fill:#73C1D7;}
</style>
<path class="st0" d="M158.4,158.4c-195.2,195.2-195.2,511.9,0,707.1s511.9,195.2,707.1,0s195.2-511.9,0-707.1
	S353.7-36.8,158.4,158.4z M778.7,299.7L566.4,512l212.3,212.3c15.1,15.1,15,39.5,0,54.4s-39.5,15-54.4,0L512,566.4L299.7,778.7
	c-15.1,15.1-39.5,15-54.4,0s-15-39.5,0-54.4L457.6,512L245.3,299.7c-15.1-15.1-15-39.5,0-54.4s39.5-15,54.4,0L512,457.6l212.3-212.3
	c15.1-15.1,39.5-15,54.4,0S793.8,284.6,778.7,299.7z"/>
</svg>
