<?xml version="1.0" encoding="utf-8"?>
<!-- Generator: Adobe Illustrator 22.0.1, SVG Export Plug-In . SVG Version: 6.00 Build 0)  -->
<svg version="1.1" id="Ebene_1" xmlns="http://www.w3.org/2000/svg" xmlns:xlink="http://www.w3.org/1999/xlink" x="0px" y="0px"
	 viewBox="0 0 1024 1024" style="enable-background:new 0 0 1024 1024;" xml:space="preserve">
<style type="text/css">
	.st0{fill:#737B84;}
</style>
<path class="st0" d="M938,12H85.8C45,12,12,44.2,12,84.2V940c0,39.8,33,72,73.8,72H938c40.8,0,74-32.2,74-72V84.2
	C1012,44.2,978.7,12,938,12z M308.3,864H159.8V387h148.5V864z M234.3,321.8c-47.8,0-86-38.5-86-86s38.5-86,86-86s86,38.5,86,86
	S281.8,321.8,234.3,321.8z M864.2,864H715.9V632c0-55.2-1-126.5-77-126.5c-77.3,0-89,60.2-89,122.5v236h-148V387h142v65h2
	c19.8-37.2,68.3-77,140.5-77c150.3,0,177.8,98.8,177.8,227.2L864.2,864L864.2,864z"/>
</svg>
