<?xml version="1.0" encoding="utf-8"?>
<!-- Generator: Adobe Illustrator 22.0.1, SVG Export Plug-In . SVG Version: 6.00 Build 0)  -->
<svg version="1.1" id="Ebene_1" xmlns="http://www.w3.org/2000/svg" xmlns:xlink="http://www.w3.org/1999/xlink" x="0px" y="0px"
	 viewBox="0 0 1024 1024" style="enable-background:new 0 0 1024 1024;" xml:space="preserve">
<style type="text/css">
	.st0{fill:#73C1D7;}
</style>
<path class="st0" d="M512,12C235.9,12,12,235.9,12,512s223.9,500,500,500s500-223.9,500-500S788.1,12,512,12z M737.6,550.5H550.5
	v187.1c0,21.3-17.3,38.5-38.5,38.5s-38.5-17.3-38.5-38.5V550.5H286.4c-21.3,0-38.5-17.3-38.5-38.5s17.3-38.5,38.5-38.5h187.1V286.4
	c0-21.3,17.3-38.5,38.5-38.5s38.5,17.3,38.5,38.5v187.1h187.1c21.3,0,38.5,17.3,38.5,38.5S758.9,550.5,737.6,550.5z"/>
</svg>
