{
    "key": "group_ppcalendar_cal_details",
    "title": "Calendar Details",
    "fields": [
        {
            "key": "field_pp_cal_color",
            "label": "Color",
            "name": "pp_cal_color",
            "type": "color_picker",
            "instructions": "",
            "required": 0,
            "conditional_logic": 0,
            "wrapper": {
                "width": "",
                "class": "",
                "id": ""
            },
            "default_value": "",
            "show_column": 1,
            "show_column_weight": 50,
            "allow_quickedit": 1,
            "allow_bulkedit": 0
        },
        {
            "key": "field_pp_cal_expire",
            "label": "Refresh every",
            "name": "pp_cal_expire",
            "type": "select",
            "instructions": "",
            "required": 0,
            "conditional_logic": 0,
            "wrapper": {
                "width": "",
                "class": "",
                "id": ""
            },
            "readonly": 0,
            "disabled": 0,
            "choices": {
                "0": "Manually",
                "900": "15 Minutes",
                "1800": "30 Minutes",
                "3600": "1 Hour",
                "21600": "6 Hours",
                "43200": "12 Hours",
                "86400": "1 Day",
                "604800": "1 Week"
            },
            "default_value": [
                3600
            ],
            "allow_null": 0,
            "multiple": 0,
            "ui": 0,
            "ajax": 0,
            "return_format": "value",
            "show_column": 1,
            "show_column_weight": 150,
            "allow_quickedit": 1,
            "allow_bulkedit": 0,
            "placeholder": ""
        }
    ],
    "location": [
        [
            {
                "param": "taxonomy",
                "operator": "==",
                "value": "pp_calendar"
            }
        ]
    ],
    "menu_order": 0,
    "position": "acf_after_title",
    "style": "default",
    "label_placement": "top",
    "instruction_placement": "label",
    "hide_on_screen": [
        "permalink",
        "the_content",
        "excerpt",
        "custom_fields",
        "discussion",
        "comments",
        "revisions",
        "slug",
        "author",
        "format",
        "page_attributes",
        "featured_image",
        "categories",
        "tags",
        "send-trackbacks"
    ],
    "active": 1,
    "description": "",
    "modified": 1726673510,
    "private": 1
}