<?xml version="1.0" standalone="no"?>
<!DOCTYPE svg PUBLIC "-//W3C//DTD SVG 1.1//EN" "http://www.w3.org/Graphics/SVG/1.1/DTD/svg11.dtd">
<svg xmlns="http://www.w3.org/2000/svg">
<metadata>Copyright (C) 2018 by original authors @ fontello.com</metadata>
<defs>
<font id="polyplanet-icons" horiz-adv-x="1024" >
<font-face font-family="polyplanet-icons" font-weight="400" font-stretch="normal" units-per-em="1024" ascent="850" descent="-174" />
<missing-glyph horiz-adv-x="1024" />
<glyph glyph-name="arrow-down" unicode="&#xe800;" d="M512 763c-235 0-425-190-425-425s190-425 425-425 425 190 425 425-190 425-425 425z m303-397l-252-252c-14-14-32-21-51-21-19 0-37 7-51 21l-253 253c-14 14-21 32-21 51 0 19 7 37 21 51s33 22 52 22c19 0 37-7 51-22l201-200 201 200c14 15 32 22 51 22s37-7 51-22c15-14 22-32 22-51 0-19-7-37-22-52z" horiz-adv-x="1024" />

<glyph glyph-name="arrow-left" unicode="&#xe801;" d="M937 338c0 235-190 425-425 425s-425-190-425-425 190-425 425-425 425 190 425 425z m-397-303l-252 252c-14 14-21 32-21 51 0 19 7 37 21 51l253 253c14 14 32 21 51 21 19 0 37-7 51-21s22-33 22-52c0-19-7-37-22-51l-200-201 200-201c15-14 22-32 22-51s-7-37-22-51c-14-15-32-22-51-22-19 0-37 7-52 22z" horiz-adv-x="1024" />

<glyph glyph-name="arrow-right" unicode="&#xe802;" d="M87 338c0-235 190-425 425-425s425 190 425 425-190 425-425 425-425-190-425-425z m397 303l252-252c14-14 21-32 21-51 0-19-7-37-21-51l-253-253c-14-14-32-21-51-21-19 0-37 7-51 21s-22 33-22 52c0 19 7 37 22 51l200 201-200 201c-15 14-22 32-22 51 0 19 7 37 22 51s32 22 51 22c19 0 37-7 52-22z" horiz-adv-x="1024" />

<glyph glyph-name="arrow-up" unicode="&#xe803;" d="M512-87c235 0 425 190 425 425s-190 425-425 425-425-190-425-425 190-425 425-425z m-303 397l252 252c14 14 32 21 51 21 19 0 37-7 51-21l253-253c14-14 21-32 21-51 0-19-7-37-21-51-15-15-33-22-52-22-19 0-37 7-51 22l-201 200-201-200c-14-15-32-22-51-22s-37 7-51 22c-15 14-22 32-22 51 0 19 7 37 22 52z" horiz-adv-x="1024" />

<glyph glyph-name="clock-hand" unicode="&#xe804;" d="M512 252c-47 0-86 39-86 86v272c0 47 39 85 86 85s86-38 86-85l0-272c0-47-39-86-86-86z" horiz-adv-x="1024" />

<glyph glyph-name="clock-invers" unicode="&#xe805;" d="M743 265h-231c-40 0-73 33-73 73v231c0 40 33 73 73 73s73-33 73-73v-158h158c40 0 73-33 73-73s-33-73-73-73z" horiz-adv-x="1024" />

<glyph glyph-name="clock" unicode="&#xe806;" d="M512 763c-235 0-425-190-425-425s190-425 425-425 425 190 425 425-190 425-425 425z m231-498h-231c-40 0-73 33-73 73v231c0 40 33 73 73 73s73-33 73-73v-158h158c40 0 73-33 73-73s-33-73-73-73z" horiz-adv-x="1024" />

<glyph glyph-name="close" unicode="&#xe807;" d="M158 692c-195-196-195-512 0-707s512-196 707 0 196 511 0 707-511 195-707 0z m621-142l-213-212 213-212c15-15 15-40 0-55s-40-15-55 0l-212 213-212-213c-15-15-40-15-55 0s-15 40 0 55l213 212-213 212c-15 15-15 40 0 55s40 15 55 0l212-213 212 213c15 15 40 15 55 0s15-40 0-55z" horiz-adv-x="1024" />

<glyph glyph-name="email" unicode="&#xe808;" d="M585 339l369 370c-20 14-45 22-73 22h-739c-24 0-47-7-66-18l373-374c38-37 99-37 136 0z m49-48c-32-33-74-49-117-49-42 0-84 17-117 49l-372 372c-10-18-16-40-16-62v-527c0-72 58-130 130-130h739c73 0 131 58 131 130v527c0 20-5 38-13 55l-365-365z" horiz-adv-x="1024" />

<glyph glyph-name="facebook" unicode="&#xe809;" d="M572-162v469h175l8 169h-183c0 202 0 87 0 124 0 46 10 74 70 74 56 0 108 0 108 0l4 157c0 0-50 7-119 7-169 0-242-104-242-217 0-76 0-145 0-145h-124v-169h124v-469h179z" horiz-adv-x="1024" />

<glyph glyph-name="gplus" unicode="&#xe80a;" d="M633 383c6-89-7-184-64-255-79-101-224-131-343-91-125 42-216 168-214 301-6 163 138 315 302 317 83 7 164-25 228-79-26-28-53-56-81-83-56 34-123 60-188 37-105-30-168-154-129-256 32-108 162-167 264-122 53 19 88 68 104 121-61 1-122 0-182 2 0 36-1 72 0 108 101 0 202 1 303 0z m288 91c-31 0-61 0-91 0 0-30 0-60 0-91-31 0-61 0-91 0 0-30 0-60 0-91 30 0 60 0 91 0 0-30 0-61 0-91 30 0 60 0 91 0 0 30 0 61 0 91 30 0 61 0 91 1 0 30 0 60 0 90-30 0-61 0-91 0 0 31 0 61 0 91z" horiz-adv-x="1024" />

<glyph glyph-name="linkedin" unicode="&#xe80b;" d="M938 838h-852c-41 0-74-32-74-72v-856c0-40 33-72 74-72h852c41 0 74 32 74 72v856c0 40-33 72-74 72z m-630-852h-148v477h148v-477z m-74 542c-48 0-86 39-86 86s39 86 86 86 86-38 86-86-38-86-86-86z m630-542h-148v232c0 55-1 126-77 126-77 0-89-60-89-122v-236h-148v477h142v-65h2c20 37 68 77 140 77 151 0 178-99 178-227l0-262 0 0z" horiz-adv-x="1024" />

<glyph glyph-name="location" unicode="&#xe80c;" d="M747 741c-60 60-143 97-235 97-92 0-175-37-235-97-60-60-97-144-97-235 0-131 83-240 166-380l168-288 164 282c83 140 166 255 166 386 0 92-37 175-97 235z m-235-414c-96 0-173 77-173 173s77 173 173 173c96 0 173-77 173-173s-77-173-173-173z" horiz-adv-x="1024" />

<glyph glyph-name="menu" unicode="&#xe80d;" d="M1012 567h-1000v106h1000v-106z m0-176h-1000v-106h1000v106z m0-282h-718v-106h718v106z" horiz-adv-x="1024" />

<glyph glyph-name="plus" unicode="&#xe80e;" d="M512 838c-276 0-500-224-500-500s224-500 500-500 500 224 500 500-224 500-500 500z m226-539h-187v-187c0-21-18-38-39-38s-39 17-39 38v187h-187c-21 0-38 18-38 39s17 39 38 39h187v187c0 21 18 38 39 38s39-17 39-38v-187h187c21 0 38-18 38-39s-17-39-38-39z" horiz-adv-x="1024" />

<glyph glyph-name="share" unicode="&#xe80f;" d="M882 13c0-97-79-175-175-175-97 0-175 78-175 175 0 0 0 0 0 0l0 0 0 0c0 2 0 3 0 4 0 26-7 168-188 148-9-1-17-2-27-2-96 0-175 78-175 175 0 97 79 175 175 175 9 0 18-1 26-2l0 0c181-21 189 122 189 148 0 1 0 3 0 4 0 97 78 175 175 175 96 0 175-78 175-175 0-97-79-175-175-175-8 0-15 1-23 1l0 0c-175 17-190-127-191-151 1-24 16-168 191-151l0 0c8 1 15 1 23 1 96 0 175-78 175-175z" horiz-adv-x="1024" />

<glyph glyph-name="twitter" unicode="&#xe810;" d="M1012 648c-37-16-76-27-118-32 43 25 75 65 90 113-39-23-83-40-130-49-37 39-91 64-150 64-113 0-205-92-205-205 0-16 2-32 5-47-170 9-321 91-422 215-18-30-28-66-28-103 0-72 36-134 91-171-34 1-65 10-93 26 0-1 0-2 0-3 0-100 71-183 165-201-18-5-36-7-54-7-14 0-27 1-39 3 26-81 102-141 192-142-71-55-159-88-255-88-17 0-33 1-49 3 91-58 199-92 314-92 378 0 584 312 584 583 0 9 0 18 0 27 40 29 74 65 102 106" horiz-adv-x="1024" />
</font>
</defs>
</svg>